{
  "files": {
    "main.css": "/static/css/main.7da58527.chunk.css",
    "main.js": "/static/js/main.c8a1f672.chunk.js",
    "main.js.map": "/static/js/main.c8a1f672.chunk.js.map",
    "runtime-main.js": "/static/js/runtime-main.437a0c5e.js",
    "runtime-main.js.map": "/static/js/runtime-main.437a0c5e.js.map",
    "static/js/2.f567e154.chunk.js": "/static/js/2.f567e154.chunk.js",
    "static/js/2.f567e154.chunk.js.map": "/static/js/2.f567e154.chunk.js.map",
    "static/js/3.98a8581e.chunk.js": "/static/js/3.98a8581e.chunk.js",
    "static/js/3.98a8581e.chunk.js.map": "/static/js/3.98a8581e.chunk.js.map",
    "index.html": "/index.html",
    "static/css/main.7da58527.chunk.css.map": "/static/css/main.7da58527.chunk.css.map",
    "static/js/2.f567e154.chunk.js.LICENSE.txt": "/static/js/2.f567e154.chunk.js.LICENSE.txt",
    "static/media/1-Cover.da01991c.jpg": "/static/media/1-Cover.da01991c.jpg",
    "static/media/1.5a5f3f02.svg": "/static/media/1.5a5f3f02.svg",
    "static/media/2-Cover-copy-1.e30c6e78.jpg": "/static/media/2-Cover-copy-1.e30c6e78.jpg",
    "static/media/2nd.66cbd753.jpg": "/static/media/2nd.66cbd753.jpg",
    "static/media/3-Objetives.d3a0a276.jpg": "/static/media/3-Objetives.d3a0a276.jpg",
    "static/media/4-Table-of-Content.ef6eb3ef.jpg": "/static/media/4-Table-of-Content.ef6eb3ef.jpg",
    "static/media/5-Metrics-Response-Time-vs-Issue-Type.7e72280d.jpg": "/static/media/5-Metrics-Response-Time-vs-Issue-Type.7e72280d.jpg",
    "static/media/Extended dates NABC GLOBAL.e62d0006.jpg": "/static/media/Extended dates NABC GLOBAL.e62d0006.jpg",
    "static/media/NABC LOGIN BAND-01.c5d9af9b.jpg": "/static/media/NABC LOGIN BAND-01.c5d9af9b.jpg",
    "static/media/Objetives (1).599d60ed.jpg": "/static/media/Objetives (1).599d60ed.jpg",
    "static/media/asuc.225abed5.gif": "/static/media/asuc.225abed5.gif",
    "static/media/foooter.4314e61f.png": "/static/media/foooter.4314e61f.png",
    "static/media/last.c99d4efe.jpg": "/static/media/last.c99d4efe.jpg",
    "static/media/logo.6ce24c58.svg": "/static/media/logo.6ce24c58.svg",
    "static/media/main.34ebf270.jpg": "/static/media/main.34ebf270.jpg"
  },
  "entrypoints": [
    "static/js/runtime-main.437a0c5e.js",
    "static/js/2.f567e154.chunk.js",
    "static/css/main.7da58527.chunk.css",
    "static/js/main.c8a1f672.chunk.js"
  ]
}